…
fisheries_tidy$catch <- as.numeric(fisheries_tidy$catch)
```

3. How many countries are represented in the data? Provide a count and list their names.

```r
fisheries_tidy %>%
  group_by(country) %>%
  summarize(n_distinct(country))
```

```
## # A tibble: 203 x 2
##    country             `n_distinct(country)`
##    <fct>                               <int>
##  1 Albania                                 1
##  2 Algeria                                 1
##  3 American Samoa                          1
##  4 Angola                                  1
##  5 Anguilla                                1
##  6 Antigua and Barbuda                     1
##  7 Argentina                               1
##  8 Aruba                                   1
##  9 Australia                               1
## 10 Bahamas                                 1
## # ... with 193 more rows
```

4. Refocus the data only to include country, isscaap_taxonomic_group, asfis_species_name, asfis_species_number, year, catch.

```r
focused_fisheries_tidy <- select(fisheries_tidy, country, isscaap_taxonomic_group, asfis_species_name, asfis_species_number, year, catch)
focused_fisheries_tidy
```

```
## # A tibble: 376,771 x 6
##    country isscaap_taxonomic_group asfis_species_n~ asfis_species_n~  year catch
##    <fct>   <chr>                   <chr>            <fct>            <dbl> <dbl>
##  1 Albania Sharks, rays, chimaeras Squatinidae      10903XXXXX        1995    NA
##  2 Albania Sharks, rays, chimaeras Squatinidae      10903XXXXX        1996    53
##  3 Albania Sharks, rays, chimaeras Squatinidae      10903XXXXX        1997    20
##  4 Albania Sharks, rays, chimaeras Squatinidae      10903XXXXX        1998    31
##  5 Albania Sharks, rays, chimaeras Squatinidae      10903XXXXX        1999    30
##  6 Albania Sharks, rays, chimaeras Squatinidae      10903XXXXX        2000    30
##  7 Albania Sharks, rays, chimaeras Squatinidae      10903XXXXX        2001    16
##  8 Albania Sharks, rays, chimaeras Squatinidae      10903XXXXX        2002    79
##  9 Albania Sharks, rays, chimaeras Squatinidae      10903XXXXX        2003     1
## 10 Albania Sharks, rays, chimaeras Squatinidae      10903XXXXX        2004     4
## # ... with 376,761 more rows
```
…
```
## [1] 1551
```

6. Which country had the largest overall catch in the year 2000?

```r
focused_fisheries_tidy %>%
  filter(year == "2000") %>%
  select(country, catch) %>%
  arrange(desc(catch))
```

```
## # A tibble: 8,793 x 2
##    country                  catch
##    <fct>                    <dbl>
##  1 China                     9068
##  2 Peru                      5717
##  3 Russian Federation        5065
##  4 Viet Nam                  4945
##  5 Chile                     4299
##  6 China                     3288
##  7 China                     2782
##  8 United States of America  2438
##  9 China                     1234
## 10 Philippines                999
## # ... with 8,783 more rows
```

7. Which country caught the most sardines (_Sardina pilchardus_) between the years 1990-2000?

```r
focused_fisheries_tidy %>%
  filter(between(year, 1990, 2000), asfis_species_name == "Sardina pilchardus") %>%
  group_by(country) %>%
  summarize(total_catch = sum(catch, na.rm = T)) %>%
  arrange(desc(total_catch))
```

```
## # A tibble: 37 x 2
##    country               total_catch
##    <fct>                       <dbl>
##  1 Morocco                      7470
##  2 Spain                        3507
##  3 Russian Federation           1639
##  4 Ukraine                      1030
##  5 France                        966
##  6 Portugal                      818
##  7 Greece                        528
##  8 Italy                         507
##  9 Serbia and Montenegro         478
## 10 Denmark                       477
## # ... with 27 more rows
```
…
9. Which species had the highest catch total between 2008-2012? (hint: Osteichthyes is not a species)

```r
focused_fisheries_tidy %>%
  filter(between(year, 2008, 2012), asfis_species_name !="Osteichthyes") %>%
  group_by(asfis_species_name) %>%
  summarize(total_catch = sum(catch, na.rm = T)) %>%
  arrange(desc(total_catch))
```

```
## # A tibble: 1,471 x 2
##    asfis_species_name    total_catch
##    <chr>                       <dbl>
##  1 Theragra chalcogramma       41075
##  2 Engraulis ringens           35523
##  3 Katsuwonus pelamis          32153
##  4 Trichiurus lepturus         30400
##  5 Clupea harengus             28527
##  6 Thunnus albacares           20119
##  7 Scomber japonicus           14723
##  8 Gadus morhua                13253
##  9 Thunnus alalunga            12019
## 10 Natantia                    11984
## # ... with 1,461 more rows
```

10. Use the data to do at least one analysis of your choice.

**Which species were not caught at all in 2012?**

```r
focused_fisheries_tidy %>%
  filter(year == "2012", is.na(catch)) %>%
  select(asfis_species_name, catch)
```

```
## # A tibble: 3,254 x 2
##    asfis_species_name    catch
##    <chr>                 <dbl>
##  1 Boops boops              NA
##  2 Penaeus kerathurus       NA
##  3 Sepia officinalis        NA
##  4 Dentex dentex            NA
##  5 Octopus vulgaris         NA
##  6 Merluccius merluccius    NA
##  7 Sardina pilchardus       NA
##  8 Mullus spp               NA
##  9 Sarda sarda              NA
## 10 Scomber scombrus         NA
## # ... with 3,244 more rows
```
…
