…
**7. Which countries have had the largest population growth since 1952?**

```r
gapminder_clean %>%
  filter(year=="1952"|year=="2007")%>%
  group_by(country) %>%
  summarise(pop_growth= max(pop)-min(pop))%>%
  arrange(desc(pop_growth))
```

```
## # A tibble: 142 x 2
##    country       pop_growth
##    <fct>              <int>
##  1 China          762419569
##  2 India          738396331
##  3 United States  143586947
##  4 Indonesia      141495000
##  5 Brazil         133408087
##  6 Pakistan       127924057
##  7 Bangladesh     103561480
##  8 Nigeria        101912068
##  9 Mexico          78556574
## 10 Philippines     68638596
## # ... with 132 more rows
```
…
