…
```r
colleges_clean <- clean_names(colleges)
```

2. Which cities in California have the highest number of colleges?

```r
colleges_clean %>%
  group_by(city) %>%
  summarise(total_colleges = n_distinct(instnm)) %>%
  arrange(desc(total_colleges))
```

```
## # A tibble: 161 x 2
##    city          total_colleges
##    <chr>                  <int>
##  1 Los Angeles               24
##  2 San Diego                 18
##  3 San Francisco             15
##  4 Sacramento                10
##  5 Berkeley                   9
##  6 Oakland                    9
##  7 Claremont                  7
##  8 Pasadena                   6
##  9 Fresno                     5
## 10 Irvine                     5
## # ... with 151 more rows
```
…
4. The column `COSTT4_A` is the annual cost of each institution. Which city has the highest average cost? Where is it located?

```r
colleges_clean %>%
  group_by(city, stabbr) %>%
  summarise(ave_cost = sum(costt4_a)) %>%
  arrange(desc(ave_cost))
```

```
## `summarise()` has grouped output by 'city'. You can override using the `.groups` argument.
```

```
## # A tibble: 161 x 3
## # Groups:   city [161]
##    city          stabbr ave_cost
##    <chr>         <chr>     <dbl>
##  1 Whittier      CA        88186
##  2 Malibu        CA        66152
##  3 Valencia      CA        64686
##  4 Redlands      CA        61542
##  5 Moraga        CA        61095
##  6 Costa Mesa    CA        57867
##  7 La Jolla      CA        57663
##  8 Atherton      CA        56035
##  9 Santa Clarita CA        54830
## 10 Thousand Oaks CA        54373
## # ... with 151 more rows
```
…
